Manipulación de datos
…
---
<img src="dplyr.png" width="10%" align="right" />

# select()

- Podemos extraer columnas

```r
gapminder %>%
  select(country, lifeExp, gdpPercap)
```

```
## # A tibble: 1,704 x 3
##    country     lifeExp gdpPercap
##    <fct>         <dbl>     <dbl>
##  1 Afghanistan    28.8      779.
##  2 Afghanistan    30.3      821.
##  3 Afghanistan    32.0      853.
##  4 Afghanistan    34.0      836.
##  5 Afghanistan    36.1      740.
##  6 Afghanistan    38.4      786.
##  7 Afghanistan    39.9      978.
##  8 Afghanistan    40.8      852.
##  9 Afghanistan    41.7      649.
## 10 Afghanistan    41.8      635.
## # ... with 1,694 more rows
```
…
---
<img src="dplyr.png" width="10%" align="right" />

# Si tenemos que seleccionar las mismas columnas varias veces

```r
cols<-c("country", "lifeExp", "gdpPercap")

gapminder %>%
  select(!!cols)
```

```
## # A tibble: 1,704 x 3
##    country     lifeExp gdpPercap
##    <fct>         <dbl>     <dbl>
##  1 Afghanistan    28.8      779.
##  2 Afghanistan    30.3      821.
##  3 Afghanistan    32.0      853.
##  4 Afghanistan    34.0      836.
##  5 Afghanistan    36.1      740.
##  6 Afghanistan    38.4      786.
##  7 Afghanistan    39.9      978.
##  8 Afghanistan    40.8      852.
##  9 Afghanistan    41.7      649.
## 10 Afghanistan    41.8      635.
## # ... with 1,694 more rows
```
…
---
<img src="dplyr.png" width="10%" align="right" />

# arrange()

- Podemos reordenar los datos según otro criterio, por ejemplo, en vez ordenar por países, reordernarlos según año. 

```r
gapminder %>%
  arrange(year, country)
```

```
## # A tibble: 1,704 x 6
##    country     continent  year lifeExp      pop gdpPercap
##    <fct>       <fct>     <int>   <dbl>    <int>     <dbl>
##  1 Afghanistan Asia       1952    28.8  8425333      779.
##  2 Albania     Europe     1952    55.2  1282697     1601.
##  3 Algeria     Africa     1952    43.1  9279525     2449.
##  4 Angola      Africa     1952    30.0  4232095     3521.
##  5 Argentina   Americas   1952    62.5 17876956     5911.
##  6 Australia   Oceania    1952    69.1  8691212    10040.
##  7 Austria     Europe     1952    66.8  6927772     6137.
##  8 Bahrain     Asia       1952    50.9   120447     9867.
##  9 Bangladesh  Asia       1952    37.5 46886859      684.
## 10 Belgium     Europe     1952    68    8730405     8343.
## # ... with 1,694 more rows
```
---
<img src="dplyr.png" width="10%" align="right" />

# arrange()

- Podemos reordenarlos de manera descendente

```r
gapminder %>%
  filter(year == 2007) %>%
* arrange(desc(lifeExp))
```

```
## # A tibble: 142 x 6
##    country          continent  year lifeExp       pop gdpPercap
##    <fct>            <fct>     <int>   <dbl>     <int>     <dbl>
##  1 Japan            Asia       2007    82.6 127467972    31656.
##  2 Hong Kong, China Asia       2007    82.2   6980412    39725.
##  3 Iceland          Europe     2007    81.8    301931    36181.
##  4 Switzerland      Europe     2007    81.7   7554661    37506.
##  5 Australia        Oceania    2007    81.2  20434176    34435.
##  6 Spain            Europe     2007    80.9  40448191    28821.
##  7 Sweden           Europe     2007    80.9   9031088    33860.
##  8 Israel           Asia       2007    80.7   6426679    25523.
##  9 France           Europe     2007    80.7  61083916    30470.
## 10 Canada           Americas   2007    80.7  33390141    36319.
## # ... with 132 more rows
```
…
